i,y
1,1
3,0
4,0
5,1
7,0
8,0
10,0
11,0
12,0
13,1
15,0
16,1
17,1
18,0
19,0
20,0
22,0
24,0
26,0
27,1
31,0
38,1
41,0
43,1
44,0
46,1
47,0
48,0
49,0
50,0
52,0
53,1
55,1
56,0
58,1
59,0
60,0
62,0
63,1
66,0
68,1
69,0
72,0
73,1
74,1
76,1
78,0
80,1
83,0
87,0
90,0
96,0
98,0
101,1
103,0
105,0
107,0
109,1
111,1
112,1
114,0
115,1
118,1
120,1
121,1
125,1
126,0
130,1
132,0
133,1
134,1
135,0
136,1
142,0
146,1
147,1
149,0
150,1
153,0
156,1
157,0
159,0
161,1
163,1
164,1
167,1
170,1
172,0
176,0
177,0
179,0
182,1
185,0
191,0
192,1
194,1
196,1
197,1
198,1
202,1
206,0
209,0
210,1
211,1
216,1
217,0
219,1
223,0
224,0
227,0
229,0
231,0
232,0
233,1
235,0
236,0
239,0
240,0
241,0
242,0
243,0
244,1
246,0
247,0
250,0
253,0
254,0
258,0
260,1
261,1
263,0
264,0
265,1
266,0
267,1
270,0
272,1
273,0
275,0
276,1
277,0
281,1
284,1
286,0
287,0
288,1
290,0
291,0
293,0
296,1
298,1
299,0
303,0
304,0
307,0
308,0
309,1
310,0
312,1
313,1
314,0
318,0
319,0
320,0
321,0
325,0
326,0
328,0
330,0
332,0
333,0
337,1
338,0
340,0
341,1
342,1
344,0
346,1
347,0
348,1
352,1
354,0
355,0
357,0
365,0
367,1
371,0
373,0
374,0
375,0
377,1
378,0
383,1
384,0
388,1
389,1
390,1
391,0
392,0
394,0
395,0
396,1
398,0
399,0
400,1
401,1
402,0
403,1
404,0
405,0
407,1
408,0
412,0
413,0
415,0
416,0
417,0
421,1
422,1
427,1
428,0
429,1
432,0
434,0
435,0
436,1
443,0
444,0
445,0
450,1
454,0
455,1
457,1
459,0
460,0
461,0
462,0
464,0
468,0
469,0
470,1
471,1
472,0
475,0
476,1
477,0
479,0
482,1
483,1
484,0
485,0
486,0
487,1
488,0
490,0
492,0
494,1
496,1
497,1
498,0
499,0
500,0
501,1
504,1
505,0
506,0
511,1
512,0
517,1
519,0
522,0
525,0
526,0
528,1
529,1
531,0
534,0
539,1
540,1
542,0
545,0
546,0
547,0
549,0
551,0
554,1
556,0
557,1
558,0
560,1
561,0
562,0
563,0
564,0
565,0
567,1
572,0
573,1
574,1
575,1
576,0
578,0
579,0
580,1
585,0
586,0
587,0
588,0
591,0
594,1
595,1
599,0
600,1
601,1
604,0
605,0
606,1
607,0
609,1
613,0
616,0
618,0
619,1
620,0
621,1
622,0
623,0
624,1
627,0
630,0
634,0
635,0
636,1
637,0
640,0
643,1
644,0
645,0
647,0
649,1
650,0
653,1
654,0
655,0
657,0
658,1
660,1
661,0
663,0
664,0
665,0
666,0
667,0
669,0
670,1
672,0
673,0
674,1
675,0
676,0
677,0
682,0
683,0
684,1
686,0
687,1
688,0
689,1
690,0
691,0
692,0
694,1
695,1
697,0
700,0
702,0
703,1
704,1
705,1
708,1
711,0
712,1
713,0
718,0
720,1
722,0
723,0
724,0
727,0
728,1
729,0
730,1
732,0
733,1
735,1
736,0
737,0
738,0
739,0
743,0
747,1
748,0
749,1
751,0
755,0
756,1
758,0
759,1
760,1
762,1
763,1
764,1
765,1
766,1
767,0
768,1
769,1
773,1
776,1
778,0
782,0
783,0
784,0
785,1
788,0
791,0
792,1
799,0
801,0
803,1
805,1
807,0
808,1
812,0
813,1
815,0
816,0
817,0
818,1
821,1
824,0
825,0
826,0
830,0
833,1
834,0
835,1
836,0
837,1
838,0
840,0
843,1
846,1
849,1
850,1
852,1
853,1
854,1
855,1
860,0
861,1
863,1
864,1
866,1
867,0
869,1
871,1
872,1
874,0
875,1
876,0
877,1
880,0
883,0
884,1
887,1
889,0
890,0
896,0
897,0
905,1
906,1
908,0
909,1
911,0
914,0
920,1
921,1
922,0
923,0
924,1
925,0
929,1
930,1
931,0
932,1
938,1
940,1
942,1
943,0
944,0
945,1
946,0
947,1
949,0
953,1
955,1
959,1
961,1
963,1
966,1
967,0
968,1
969,1
973,1
977,0
980,0
981,1
982,1
989,1
991,1
992,1
994,1
995,0
996,0
1000,0
1009,0
1013,0
1017,1
1020,1
1021,1
1030,1
1034,0
1037,0
1038,1
1039,1
1041,0
1043,0
1044,0
1047,0
1050,0
1052,0
1056,0
1057,0
1058,1
1062,1
1064,1
1065,1
1066,1
1067,1
1070,1
1071,0
1072,1
1073,1
1075,0
1076,0
1077,0
1078,1
1079,1
1080,0
1081,0
1090,1
1094,0
1095,0
1100,0
1103,0
1104,0
1105,1
1107,0
1108,0
1110,1
1112,1
1114,1
1115,1
1116,0
1119,1
1120,1
1122,1
1123,1
1124,0
1125,0
1130,1
1131,0
1132,0
1135,0
1137,0
1140,1
1141,0
1142,0
1143,1
1144,0
1147,1
1150,0
1151,0
1154,1
1156,1
1158,0
1160,1
1161,0
1162,0
1163,0
1165,1
1167,0
1169,0
1171,0
1173,1
1174,1
1175,1
1176,1
1177,1
1179,0
1187,0
1188,1
1190,0
1191,0
1194,1
1195,0
1198,1
1199,1
1200,0
1205,0
1206,0
1207,1
1208,1
1209,0
1219,1
1220,1
1221,0
1222,0
1226,0
1229,0
1230,0
1233,0
1234,0
1237,1
1239,1
1240,0
1241,0
1243,0
1244,1
1247,0
1252,1
1254,1
1255,0
1258,1
1259,1
1262,0
1263,0
1264,0
1266,1
1267,0
1268,0
1270,0
1271,1
1273,0
1274,1
1279,1
1280,1
1281,0
1283,0
1284,0
1285,0
1286,1
1288,0
1290,0
1292,1
1293,0
1294,1
1298,1
1299,1
1301,0
1302,1
1303,1
1304,1
1305,0
1308,1
1312,1
1313,1
1314,0
1315,1
1316,1
1318,0
1319,0
1322,0
1326,0
1328,1
1330,0
1331,1
1337,0
1340,1
1341,1
1342,1
1343,0
1346,1
1347,0
1349,0
1353,0
1354,0
1355,1
1357,1
1358,1
1360,0
1362,0
1363,1
1369,0
1372,0
1374,1
1375,0
1376,0
1377,1
1379,0
1380,0
1381,0
1382,0
1385,0
1388,0
1389,0
1391,0
1392,1
1393,0
1398,0
1401,0
1402,0
1403,0
1405,0
1408,0
1410,0
1412,1
1420,1
1422,1
1424,0
1425,1
1432,0
1433,0
1434,0
1437,0
1439,1
1441,0
1445,0
1449,1
1451,0
1455,0
1460,0
1462,0
1463,0
1464,1
1469,0
1471,0
1473,0
1475,1
1477,0
1478,1
1479,1
1482,0
1488,1
1491,1
1494,1
1495,0
1496,1
1497,0
1498,1
1500,1
1501,1
1504,0
1506,0
1507,1
1508,0
1509,0
1511,1
1517,1
1518,0
1521,0
1523,0
1527,0
1529,1
1533,0
1535,0
1536,1
1537,0
1539,0
1544,0
1546,1
1549,0
1550,0
1551,0
1554,1
1556,0
1561,1
1562,0
1564,0
1565,1
1566,1
1567,0
1569,1
1570,1
1572,0
1577,0
1578,0
1583,0
1584,1
1586,1
1589,1
1596,0
1598,0
1599,0
1600,1
1603,0
1606,0
1610,0
1612,0
1613,0
1614,1
1616,1
1618,0
1619,1
1620,1
1621,0
1622,0
1623,1
1625,1
1627,1
1628,0
1629,0
1631,0
1633,0
1634,1
1637,1
1642,0
1643,0
1646,0
1652,0
1653,0
1655,1
1657,1
1661,0
1663,0
1664,0
1665,0
1668,1
1671,1
1672,1
1673,0
1674,1
1675,0
1677,1
1679,1
1682,0
1684,0
1685,0
1686,1
1687,0
1689,0
1690,1
1691,1
1694,0
1696,1
1697,0
1699,0
1700,0
1703,1
1704,0
1705,1
1712,1
1714,0
1715,1
1716,0
1717,1
1719,1
1720,0
1724,0
1726,0
1729,0
1732,0
1736,0
1738,1
1739,1
1740,1
1742,1
1746,0
1748,1
1750,0
1751,0
1752,0
1753,0
1754,0
1755,0
1758,0
1759,0
1760,1
1761,1
1763,1
1770,1
1771,0
1772,1
1773,0
1774,1
1775,0
1776,1
1777,1
1779,0
1780,0
1782,1
1783,0
1784,0
1793,1
1795,0
1796,0
1798,0
1804,0
1808,1
1810,0
1811,1
1812,1
1813,0
1814,0
1818,0
1820,1
1823,0
1824,0
1826,0
1827,0
1828,0
1829,1
1830,1
1835,0
1837,0
1838,0
1839,0
1842,0
1843,0
1844,0
1846,0
1848,1
1849,1
1850,1
1853,0
1855,1
1856,0
1857,1
1859,1
1860,1
1861,0
1862,1
1864,0
1866,1
1874,1
1875,0
1876,1
1877,0
1878,1
1880,1
1881,0
1883,0
1884,1
1885,0
1886,1
1889,0
1892,0
1894,1
1896,0
1899,1
1900,1
1902,1
1907,0
1909,1
1910,0
1911,1
1912,0
1914,0
1916,0
1917,1
1921,0
1924,1
1925,0
1926,1
1927,0
1929,0
1930,0
1933,1
1936,0
1938,1
1943,1
1945,0
1946,0
1949,0
1951,1
1952,1
1953,0
1957,0
1959,0
1960,0
1961,1
1964,0
1967,0
1969,0
1970,1
1971,0
1972,0
1973,0
1975,1
1976,1
1979,1
1980,0
1981,0
1982,0
1983,1
1984,0
1988,1
1989,0
1991,0
1994,0
1995,0
2000,0
2006,0
2007,1
2008,0
2009,0
2010,1
2015,0
2017,0
2020,0
2021,0
2022,1
2023,0
2025,0
2028,0
2029,1
2030,1
2031,0
2033,0
2034,1
2035,0
2036,1
2037,1
2039,0
2040,1
2043,0
2044,0
2045,0
2047,0
2049,1
2052,0
2055,0
2056,1
2057,0
2058,1
2059,0
2060,0
2061,0
2064,0
2065,0
2067,1
2068,0
2070,0
2077,1
2079,0
2082,1
2084,1
2086,0
2089,0
2093,0
2096,0
2097,1
2099,1
2100,0
2105,0
2109,0
2116,1
2117,1
2118,1
2120,1
2121,0
2128,0
2130,0
2131,0
2132,0
2133,1
2135,1
2136,1
2140,0
2144,1
2145,0
2149,0
2150,0
2151,0
2155,0
2156,0
2157,0
2158,1
2160,0
2161,0
2162,1
2163,1
2164,0
2166,0
2167,0
2168,1
2169,0
2171,0
2174,1
2175,1
2176,1
2177,1
2179,1
2181,1
2182,0
2183,0
2184,0
2185,0
2188,0
2189,1
2190,0
2194,0
2195,0
2197,0
2199,0
2201,0
2203,0
2204,1
2212,1
2213,1
2214,1
2215,0
2216,0
2217,0
2219,0
2220,0
2221,1
2223,0
2224,1
2225,1
2229,0
2230,0
2232,0
2234,0
2235,0
2236,0
2237,0
2238,0
2241,1
2243,1
2252,1
2254,0
2255,1
2259,1
2260,0
2261,0
2262,0
2264,0
2265,0
2266,1
2267,0
2268,0
2269,1
2272,0
2273,0
2276,0
2277,0
2278,0
2280,1
2281,0
2282,1
2284,0
2286,1
2287,1
2288,1
2291,1
2292,1
2293,0
2295,1
2296,1
2297,1
2298,0
2300,1
2301,1
2304,0
2307,0
2308,1
2312,1
2313,0
2315,0
2317,0
2318,1
2324,1
2326,0
2327,1
2328,1
2330,1
2331,0
2332,0
2333,1
2334,1
2335,1
2336,0
2337,0
2338,0
2339,0
2340,0
2342,0
2347,1
2348,0
2349,0
2350,0
2351,0
2352,0
2353,0
2356,0
2357,0
2359,0
2361,0
2362,1
2367,0
2368,1
2369,0
2372,0
2375,0
2378,0
2379,1
2382,0
2383,1
2387,0
2389,0
2390,1
2392,0
2393,1
2395,1
2399,0
2400,0
2401,1
2402,0
2405,0
2408,1
2414,0
2415,0
2418,0
2419,0
2421,0
2422,1
2425,0
2432,0
2433,0
2434,0
2435,1
2436,0
2437,0
2439,0
2446,0
2447,0
2450,0
2452,1
2457,0
2458,1
2459,0
2462,1
2463,1
2464,0
2467,0
2468,0
2469,0
2471,0
2472,0
2473,1
2475,0
2476,1
2480,1
2481,1
2482,0
2485,1
2487,1
2488,1
2491,0
2492,0
2496,1
2499,1
2500,1
2501,0
2502,0
2506,0
2507,0
2511,0
2513,0
2514,0
2519,0
2520,1
2522,1
2523,0
2524,0
2525,0
2532,1
2536,0
2538,0
2541,1
2543,0
2545,0
2547,0
2548,0
2554,0
2556,1
2558,0
2559,0
2561,1
2562,1
2565,0
2568,0
2572,0
2573,1
2575,1
2576,1
2577,1
2578,1
2579,1
2580,0
2582,0
2588,0
2590,1
2591,0
2592,1
2593,0
2596,0
2598,1
2600,0
2603,1
2604,0
2605,0
2608,0
2609,0
2610,0
2611,1
2612,1
2613,1
2614,1
2615,1
2616,0
2617,0
2620,0
2621,0
2627,0
2629,0
2633,1
2636,1
2639,1
2640,0
2641,1
2644,0
2645,1
2646,1
2648,1
2649,0
2650,0
2652,0
2653,1
2656,1
2657,0
2659,0
2661,0
2663,1
2665,0
2669,1
2673,0
2675,0
2676,0
2677,0
2678,0
2680,0
2683,0
2684,0
2685,0
2686,1
2689,0
2691,1
2694,0
2700,0
2702,0
2704,0
2707,1
2711,1
2716,1
2722,0
2723,0
2724,0
2727,0
2728,1
2729,0
2731,1
2732,1
2735,0
2737,1
2739,0
2741,0
2746,0
2747,1
2748,1
2751,1
2752,0
2756,1
2757,0
2761,0
2763,1
2764,0
2765,0
2766,0
2773,0
2774,1
2777,1
2778,0
2781,0
2785,0
2788,0
2789,1
2790,1
2792,0
2793,0
2796,0
2800,0
2811,0
2813,0
2814,1
2815,1
2818,0
2820,0
2822,0
2824,0
2825,1
2826,1
2831,0
2833,0
2835,1
2838,1
2839,1
2840,0
2842,0
2844,1
2846,1
2851,1
2854,1
2855,0
2856,1
2859,1
2860,0
2865,0
2866,0
2867,1
2869,1
2872,0
2873,0
2874,1
2875,0
2877,0
2878,0
2879,0
2880,1
2883,0
2884,1
2885,0
2886,0
2887,0
2890,0
2892,0
2893,1
2894,0
2895,1
2897,1
2899,0
2900,0
2901,0
2902,1
2903,0
2904,0
2906,1
2909,0
2912,0
2914,1
2917,1
2918,1
2921,0
2927,1
2928,0
2931,0
2932,1
2933,0
2936,1
2941,0
2945,1
2946,0
2947,0
2948,0
2949,0
2950,1
2951,1
2952,1
2953,1
2955,0
2957,0
2958,1
2960,1
2962,1
2965,1
2966,0
2967,1
2969,1
2970,0
2972,0
2973,0
2974,0
2975,1
2976,0
2977,1
2979,1
2980,1
2984,0
2987,1
2988,0
2989,1
2990,0
2991,1
2992,0
2994,1
2996,1
2998,1
2999,0
3001,0
3002,0
3004,0
3008,0
3009,1
3010,1
3011,0
3015,1
3017,0
3019,0
3021,0
3026,0
3029,0
3030,1
3032,1
3033,0
3034,1
3035,1
3036,1
3041,0
3043,0
3044,0
3045,0
3047,0
3048,0
3050,0
3051,0
3052,0
3055,0
3057,1
3059,1
3060,0
3061,0
3062,0
3064,1
3065,1
3067,0
3070,0
3072,0
3073,0
3075,0
3078,0
3081,0
3082,0
3083,1
3086,0
3089,0
3090,0
3093,0
3095,0
3097,1
3098,0
3100,0
3102,0
3103,1
3104,0
3105,1
3106,1
3108,1
3109,0
3112,0
3113,0
3114,1
3115,0
3117,0
3120,0
3122,1
3123,1
3125,1
3126,0
3127,1
3128,0
3131,0
3133,0
3138,0
3143,0
3144,0
3150,0
3152,0
3154,1
3158,0
3159,0
3163,0
3164,0
3165,1
3166,1
3168,1
3170,0
3171,0
3172,1
3175,0
3176,0
3177,0
3178,1
3179,0
3180,0
3181,0
3182,0
3183,0
3187,1
3188,0
3189,0
3190,1
3192,0
3195,0
3198,0
3199,0
3202,0
3203,1
3206,0
3207,0
3210,1
3213,1
3214,0
3216,0
3217,0
3219,0
3227,1
3228,0
3230,0
3232,1
3233,1
3234,1
3235,0
3237,1
3241,0
3242,1
3243,0
3244,0
3246,0
3247,1
3248,0
3249,0
3250,0
3252,0
3254,0
3257,1
3258,0
3260,0
3261,1
3262,1
3264,1
3269,0
3274,1
3275,0
3276,0
3278,0
3280,0
3281,1
3283,1
3284,0
3285,0
3286,0
3288,0
3289,0
3292,0
3293,0
3295,0
3297,1
3300,0
3304,1
3305,0
3306,1
3308,1
3310,0
3311,1
3312,1
3313,1
3316,1
3317,1
3319,1
3320,1
3321,0
3323,1
3324,0
3325,0
3326,1
3327,0
3328,1
3331,0
3332,1
3334,1
3335,0
3337,0
3339,0
3342,1
3343,0
3348,0
3352,1
3357,0
3358,1
3359,0
3360,0
3364,0
3367,0
3370,1
3372,0
3373,0
3376,1
3379,1
3382,1
3383,0
3389,0
3390,0
3391,0
3394,1
3395,0
3397,1
3399,0
3409,1
3410,0
3411,1
3413,1
3414,0
3417,0
3418,0
3419,1
3421,0
3429,0
3430,1
3432,0
3436,0
3440,0
3442,0
3443,0
3445,0
3447,0
3448,1
3451,1
3453,1
3454,0
3455,0
3458,0
3461,1
3467,0
3468,0
3472,0
3473,0
3475,0
3478,0
3482,0
3483,0
3484,0
3487,0
3489,0
3490,1
3492,1
3493,0
3494,0
3499,0
3503,0
3504,0
3505,0
3506,0
3507,0
3508,1
3510,0
3515,1
3517,0
3518,1
3521,0
3523,0
3525,0
3526,0
3527,0
3529,0
3532,0
3536,0
3537,0
3539,0
3540,0
3543,0
3544,0
3546,0
3547,0
3550,0
3551,0
3553,0
3556,1
3560,1
3565,0
3566,0
3567,0
3568,0
3570,1
3572,1
3574,1
3576,0
3580,0
3587,0
3588,1
3591,0
3593,0
3594,0
3598,0
3602,0
3603,0
3604,0
3605,0
3606,0
3607,0
3609,1
3612,0
3614,1
3615,0
3616,0
3617,0
3618,1
3620,0
3622,1
3626,0
3632,0
3638,0
3640,0
3643,0
3644,1
3647,0
3648,0
3651,0
3652,0
3657,0
3660,1
3662,0
3663,0
3664,0
3666,0
3667,0
3668,0
3669,1
3671,0
3672,0
3675,0
3677,1
3678,0
3680,0
3683,0
3687,0
3688,1
3689,0
3690,1
3691,0
3694,0
3696,0
3697,0
3701,0
3702,0
3703,0
3705,1
3708,0
3711,0
3712,0
3714,0
3716,0
3717,0
3718,0
3719,0
3722,0
3723,0
3724,1
3726,0
3730,0
3734,1
3735,1
3736,1
3737,0
3738,1
3743,0
3748,1
3749,0
3750,0
3751,0
3752,1
3755,1
3756,0
3757,0
3758,0
3761,0
3762,1
3763,0
3764,0
3766,0
3768,1
3769,0
3770,1
3771,0
3775,1
3777,0
3780,0
3782,0
3784,1
3785,1
3786,1
3787,0
3788,0
3791,0
3794,0
3795,0
3796,1
3797,0
3798,0
3799,0
3800,0
3803,0
3808,1
3810,1
3815,0
3816,0
3818,1
3819,0
3820,1
3821,1
3822,0
3823,0
3824,1
3825,1
3827,1
3829,0
3830,0
3832,0
3836,0
3838,0
3839,0
3840,1
3843,1
3845,0
3846,0
3848,0
3850,0
3852,0
3854,0
3855,0
3856,0
3858,0
3859,0
3860,0
3862,0
3867,0
3869,1
3870,1
3873,0
3875,1
3876,0
3879,1
3880,1
3886,0
3891,1
3894,0
3896,0
3897,0
3899,0
3901,1
3903,0
3905,0
3907,1
3908,0
3909,0
3910,1
3916,1
3917,0
3918,0
3920,0
3921,0
3922,1
3923,1
3924,0
3925,0
3929,1
3931,0
3932,1
3934,0
3935,0
3937,1
3940,0
3942,0
3944,0
3946,0
3950,0
3953,0
3955,0
3957,0
3958,0
3959,1
3961,0
3962,0
3963,0
3964,0
3967,0
3969,1
3972,0
3974,0
3976,0
3981,1
3982,0
3984,0
3986,1
3993,0
3994,1
3996,1
3998,1
4000,1
4003,1
4004,0
4005,0
4006,0
4009,0
4010,0
4011,1
4012,1
4014,0
4016,0
4018,1
4020,1
4022,0
4023,1
4028,0
4029,1
4030,0
4032,0
4035,0
4043,0
4048,0
4049,0
4051,0
4053,0
4054,1
4057,0
4058,1
4059,0
4060,1
4064,0
4067,1
4072,0
4073,1
4074,0
4075,0
4076,0
4079,1
4081,0
4082,1
4084,0
4085,0
4088,0
4089,0
4091,0
4092,0
4093,0
4098,0
4109,1
4110,1
4113,1
4115,0
4116,0
4118,0
4119,1
4121,0
4126,0
4127,1
4128,1
4129,1
4130,0
4131,0
4132,1
4135,1
4136,0
4138,1
4139,1
4140,1
4144,0
4145,1
4146,0
4147,1
4148,0
4150,1
4151,0
4152,0
4153,1
4155,0
4156,1
4157,0
4161,0
4166,1
4167,0
4173,0
4174,0
4175,0
4176,0
4177,0
4182,0
4183,1
4187,1
4188,0
4189,0
4190,1
4191,0
4194,0
4195,1
4197,0
4200,0
4201,0
4202,1
4203,0
4206,1
4207,0
4210,0
4214,0
4222,0
4226,0
4231,0
4235,0
4237,0
4243,1
4251,0
4255,0
4258,1
4260,1
4264,0
4269,1
4270,1
4271,0
4273,0
4274,0
4276,0
4280,0
4281,0
4282,1
4286,0
4288,0
4290,0
4291,0
4293,1
4294,1
4295,1
4296,0
4297,1
4300,0
4303,0
4304,0
4305,0
4306,0
4309,0
4314,0
4315,0
4316,1
4317,1
4318,0
4319,0
4320,0
4321,0
4326,0
4328,0
4331,0
4332,0
4334,0
4335,0
4336,1
4337,1
4340,1
4341,1
4345,0
4346,1
4347,0
4348,1
4349,0
4350,1
4351,1
4352,1
4353,0
4354,1
4356,1
4358,1
4359,0
4360,0
4361,0
4362,1
4363,0
4364,1
4365,0
4366,0
4367,0
4369,0
4370,0
4372,0
4373,1
4374,1
4376,0
4379,1
4380,0
4381,1
4383,0
4384,0
4385,1
4386,0
4387,0
4390,0
4391,1
4394,1
4399,1
4400,0
4404,1
4405,0
4408,0
4415,0
4416,0
4418,0
4419,0
4420,0
4422,1
4423,0
4425,0
4428,0
4432,0
4433,1
4434,1
4436,0
4437,1
4439,1
4440,0
4446,1
4450,1
4451,1
4452,0
4454,0
4455,0
4458,0
4459,1
4460,1
4461,0
4463,0
4464,0
4466,0
4468,0
4469,1
4472,0
4473,0
4474,0
4477,0
4478,0
4480,0
4481,1
4484,0
4485,0
4486,0
4488,0
4491,0
4492,0
4497,0
4498,0
4499,0
4504,0
4511,0
4514,1
4515,1
4519,0
4520,1
4525,0
4529,0
4530,0
4531,0
4532,0
4536,0
4537,1
4538,0
4539,0
4543,1
4544,0
4546,0
4551,0
4555,0
4557,0
4560,0
4563,0
4565,0
4566,0
4568,0
4569,1
4571,0
4572,1
4574,1
4575,0
4578,0
4580,0
4581,0
4582,0
4583,0
4584,0
4587,0
4588,0
4589,0
4590,1
4591,0
4593,0
4594,0
4599,1
4606,0
4607,1
4608,0
4609,0
4611,1
4613,0
4614,0
4617,0
4619,1
4621,0
4624,0
4625,0
4626,0
4627,0
4630,0
4631,0
4634,0
4636,0
4637,1
4641,0
4642,0
4646,0
4647,0
4648,0
4651,1
4652,0
4653,0
4655,1
4657,1
4658,1
4662,1
4663,0
4664,0
4666,1
4667,1
4671,0
4672,1
4673,0
4674,0
4678,0
4679,0
4682,0
4683,0
4684,0
4686,1
4688,0
4689,1
4694,0
4696,0
4697,1
4700,0
4701,0
4703,0
4704,0
4707,0
4708,0
4709,1
4711,0
4712,1
4713,1
4714,1
4716,0
4721,0
4722,1
4725,0
4728,0
4729,0
4734,1
4736,1
4738,0
4739,0
4740,0
4742,0
4754,0
4757,0
4760,0
4761,1
4762,1
4766,1
4770,0
4771,0
4776,0
4780,0
4783,1
4785,0
4788,0
4790,0
4792,1
4793,1
4794,0
4796,0
4799,0
4800,1
4804,0
4807,0
4809,1
4811,1
4812,0
4813,0
4814,0
4815,1
4820,0
4823,1
4824,0
4825,1
4826,0
4828,0
4835,0
4836,0
4837,1
4839,0
4841,0
4842,0
4844,1
4846,0
4851,0
4854,1
4855,1
4857,1
4859,0
4861,1
4868,0
4870,0
4872,1
4874,1
4876,0
4877,1
4879,0
4880,0
4881,0
4883,0
4884,1
4887,0
4888,1
4889,1
4890,0
4891,0
4895,0
4896,1
4900,1
4901,0
4903,0
4904,0
4906,1
4908,1
4909,0
4911,0
4915,0
4916,0
4917,1
4918,0
4919,0
4920,0
4921,0
4922,1
4923,0
4924,0
4930,1
4931,1
4934,0
4935,0
4936,0
4942,0
4944,0
4945,1
4946,1
4947,0
4948,0
4949,0
4954,0
4956,1
4957,0
4958,0
4959,0
4960,0
4963,1
4964,0
4965,0
4971,0
4974,0
4978,1
4979,0
4980,0
4981,1
4983,1
4985,0
4986,1
4987,0
4988,0
4989,0
4991,1
4992,1
4993,0
4994,0
4998,0
5004,0
5007,0
5008,0
5009,1
5011,0
5012,0
5013,0
5014,0
5015,0
5016,0
5023,1
5024,0
5025,0
5026,0
5027,0
5030,0
5033,0
5034,0
5036,1
5037,1
5039,1
5041,0
5044,1
5045,0
5046,0
5049,0
5051,0
5052,0
5053,0
5054,0
5058,0
5060,0
5061,0
5065,0
5068,0
5070,1
5072,1
5073,0
5074,1
5075,1
5076,1
5079,0
5082,0
5083,0
5086,0
5087,0
5089,0
5090,1
5091,1
5094,0
5095,0
5098,0
5100,0
5101,0
5102,1
5105,1
5106,0
5107,0
5108,0
5112,0
5113,0
5114,0
5115,0
5117,0
5125,1
5128,0
5130,1
5132,0
5133,1
5134,0
5138,1
5139,0
5140,0
5143,1
5145,0
5148,1
5149,0
5150,0
5158,1
5161,1
5162,1
5163,0
5168,0
5169,1
5171,0
5172,1
5173,0
5175,0
5176,1
5179,0
5182,1
5189,0
5190,0
5193,0
5195,1
5198,0
5199,1
5200,1
5201,0
5205,0
5206,0
5207,0
5210,0
5211,0
5212,0
5213,0
5215,0
5220,0
5222,1
5223,1
5228,1
5234,0
5235,1
5236,1
5240,0
5241,0
5242,0
5246,0
5247,0
5251,0
5252,0
5253,0
5255,0
5256,0
5257,0
5258,0
5259,0
5261,1
5262,0
5263,0
5266,0
5267,0
5268,0
5272,0
5274,1
5275,0
5276,1
5277,1
5278,0
5282,1
5285,0
5290,1
5291,0
5295,0
5296,0
5298,1
5304,1
5305,1
5306,0
5307,1
5308,0
5309,0
5311,0
5313,0
5315,0
5323,0
5324,1
5325,1
5326,1
5327,1
5332,0
5333,1
5335,0
5337,0
5344,0
5346,0
5347,0
5348,1
5351,0
5352,0
5353,1
5355,1
5356,1
5358,0
5359,1
5361,1
5363,1
5365,1
5366,0
5367,1
5372,0
5374,0
5375,0
5376,0
5383,0
5385,0
5387,0
5393,1
5394,0
5398,0
5399,0
5400,1
5401,0
5402,0
5405,0
5408,1
5410,1
5411,0
5419,1
5424,0
5425,0
5426,1
5429,0
5431,0
5432,0
5433,0
5434,0
5435,1
5436,1
5437,0
5438,1
5439,1
5440,0
5441,0
5444,0
5445,1
5448,0
5449,0
5450,0
5453,0
5454,1
5456,1
5458,1
5459,0
5461,0
5463,0
5464,0
5467,0
5468,1
5470,1
5471,0
5472,0
5473,1
5474,1
5481,0
5482,1
5483,0
5484,1
5487,1
5493,0
5494,0
5495,0
5498,1
5499,0
5500,0
5504,1
5505,0
5507,0
5511,0
5514,1
5520,0
5521,0
5523,1
5525,1
5527,1
5532,0
5533,0
5535,0
5538,0
5539,0
5540,0
5543,0
5544,1
5545,1
5546,1
5553,0
5555,0
5557,0
5560,0
5561,0
5562,1
5563,0
5564,1
5566,1
5567,1
5570,0
5573,1
5575,1
5578,0
5581,1
5582,1
5583,0
5584,1
5585,0
5586,0
5587,1
5590,0
5591,0
5593,0
5600,0
5603,1
5605,1
5607,0
5609,0
5613,0
5615,0
5618,1
5619,1
5622,0
5623,1
5627,0
5629,1
5630,0
5631,0
5632,0
5636,0
5637,1
5640,0
5642,0
5644,0
5645,0
5646,1
5648,0
5649,0
5650,0
5651,0
5652,1
5653,0
5659,0
5660,1
5664,1
5666,0
5668,0
5671,0
5672,0
5674,1
5676,0
5677,1
5678,0
5679,0
5680,0
5684,0
5686,0
5688,0
5689,0
5690,0
5691,1
5696,1
5698,0
5699,0
5702,1
5703,0
5704,0
5705,0
5706,0
5707,0
5708,0
5709,0
5710,1
5711,0
5712,0
5713,0
5714,0
5715,1
5717,0
5718,0
5721,0
5722,0
5723,0
5724,0
5726,1
5730,0
5733,1
5734,1
5737,0
5738,0
5739,0
5740,0
5743,1
5744,0
5749,0
5750,0
5751,0
5752,1
5753,1
5754,0
5758,0
5761,0
5762,0
5764,0
5765,0
5768,0
5769,1
5771,1
5772,0
5777,0
5778,1
5783,0
5784,0
5785,0
5786,0
5787,0
5788,0
5790,1
5792,1
5794,0
5795,0
5796,0
5797,1
5800,0
5801,1
5805,0
5806,1
5807,0
5808,1
5814,0
5815,0
5816,0
5820,0
5822,0
5824,0
5826,1
5827,0
5829,0
5832,0
5834,0
5835,1
5836,1
5837,1
5841,1
5843,1
5844,1
5846,0
5847,1
5854,1
5855,0
5856,1
5857,0
5860,1
5863,1
5864,1
5866,0
5868,0
5872,1
5874,0
5877,0
5878,0
5879,0
5880,1
5881,1
5882,0
5884,1
5886,0
5887,0
5888,1
5893,0
5898,1
5901,1
5902,0
5903,1
5904,1
5905,0
5906,1
5909,1
5915,1
5916,1
5917,1
5919,0
5920,1
5921,0
5930,1
5932,0
5936,0
5937,0
5938,1
5939,1
5941,1
5942,0
5943,0
5946,0
5948,0
5949,0
5950,0
5955,0
5956,0
5957,1
5958,1
5961,0
5964,0
5966,1
5967,1
5973,1
5974,0
5976,1
5979,0
5980,0
5985,0
5987,0
5988,1
5990,0
5992,1
5996,1
5997,0
5998,1
5999,1
6003,1
6007,1
6009,1
6010,1
6011,1
6012,0
6013,0
6014,1
6015,1
6017,0
6019,0
6020,0
6023,1
6024,1
6025,0
6031,0
6035,1
6036,0
6037,1
6038,0
6039,0
6041,1
6042,0
6043,1
6047,1
6048,0
6050,1
6053,0
6056,1
6060,0
6061,0
6062,1
6064,1
6065,0
6068,1
6072,1
6075,1
6078,1
6080,1
6082,1
6083,0
6084,0
6085,1
6086,1
6089,0
6090,1
6091,1
6093,0
6096,0
6097,1
6101,1
6102,1
6105,0
6106,0
6109,0
6112,1
6114,1
6119,1
6120,1
6121,1
6123,0
6124,1
6129,1
6130,0
6131,0
6132,1
6133,0
6135,1
6139,1
6140,0
6142,1
6143,1
6145,0
6149,0
6152,1
6154,1
6155,0
6156,0
6157,0
6159,0
6161,1
6165,1
6166,1
6169,1
6170,0
6172,1
6173,1
6174,1
6176,0
6177,1
6178,0
6179,0
6182,0
6183,0
6186,0
6187,0
6189,1
6193,1
6196,0
6198,0
6200,0
6202,1
6203,0
6204,0
6206,0
6207,0
6210,0
6211,0
6215,0
6217,1
6218,0
6219,0
6221,1
6223,0
6225,0
6227,0
6228,1
6229,0
6232,1
6235,0
6236,1
6238,1
6240,0
6242,0
6245,0
6246,1
6250,1
6254,0
6256,1
6259,0
6261,0
6263,0
6265,1
6266,1
6268,1
6271,0
6275,0
6276,1
6279,1
6281,1
6283,1
6284,1
6285,0
6287,1
6290,1
6291,0
6293,0
6297,1
6298,1
6299,1
6300,0
6301,1
6302,1
6308,0
6311,0
6314,0
6318,1
6319,1
6325,0
6327,0
6328,1
6331,0
6333,0
6337,1
6338,0
6340,1
6341,1
6343,0
6345,1
6347,1
6348,1
6349,1
6350,1
6355,0
6356,0
6357,1
6358,0
6361,0
6363,1
6364,1
6365,0
6366,0
6368,0
6370,0
6371,0
6372,1
6375,1
6376,0
6378,0
6383,0
6384,0
6385,1
6386,0
6387,0
6389,0
6390,0
6392,0
6394,1
6396,1
6400,1
6401,1
6402,0
6403,0
6405,1
6406,1
6407,0
6409,0
6410,0
6412,1
6413,1
6417,0
6419,1
6421,0
6424,1
6429,0
6430,0
6431,1
6432,1
6434,0
6435,0
6438,0
6440,1
6441,1
6444,0
6446,1
6447,1
6448,1
6449,0
6451,1
6452,1
6454,0
6456,0
6458,1
6459,1
6460,1
6463,0
6464,1
6465,1
6467,0
6476,0
6477,1
6478,0
6483,1
6485,0
6486,1
6487,1
6489,0
6490,1
6491,1
6493,0
6497,1
6498,1
6500,1
6505,0
6506,0
6507,1
6510,0
6512,0
6516,1
6519,1
6522,1
6526,0
6528,0
6529,0
6530,1
6531,0
6534,1
6536,1
6537,0
6539,0
6540,1
6541,1
6543,0
6545,0
6546,0
6547,0
6551,0
6554,0
6555,0
6556,0
6558,0
6562,0
6565,1
6567,1
6568,0
6569,1
6570,0
6573,0
6574,1
6575,0
6580,0
6583,0
6585,1
6593,0
6598,0
6601,0
6604,0
6605,0
6607,1
6609,0
6610,0
6613,0
6614,1
6616,0
6618,1
6619,1
6622,0
6628,0
6631,1
6633,1
6634,0
6640,1
6641,0
6642,1
6645,0
6646,0
6647,1
6651,1
6652,0
6657,1
6660,0
6662,0
6666,1
6667,1
6668,1
6669,0
6671,0
6676,0
6677,1
6678,1
6679,1
6683,1
6688,1
6690,0
6691,0
6694,0
6695,1
6696,0
6699,1
6700,0
6702,1
6704,0
6706,0
6708,1
6711,1
6712,1
6713,0
6714,0
6716,0
6717,0
6721,1
6724,1
6725,1
6727,0
6729,1
6730,0
6731,0
6734,0
6737,1
6738,0
6739,0
6742,1
6743,0
6744,1
6745,0
6747,1
6748,1
6751,0
6754,1
6767,0
6768,0
6769,1
6771,0
6777,0
6780,1
6782,0
6783,0
6786,1
6788,0
6789,0
6791,0
6792,0
6795,1
6796,0
6797,0
6798,1
6800,0
6802,1
6803,0
6805,1
6806,0
6807,1
6815,0
6817,1
6819,1
6821,1
6822,0
6824,1
6826,0
6828,1
6829,0
6830,1
6831,1
6832,0
6833,1
6839,1
6841,0
6842,0
6846,0
6847,0
6849,0
6850,1
6851,1
6854,0
6856,1
6858,1
6859,1
6861,0
6862,0
6863,0
6864,0
6865,0
6867,0
6868,1
6869,0
6870,0
6871,0
6872,0
6877,0
6878,1
6879,0
6881,1
6882,0
6884,1
6885,1
6890,0
6896,1
6897,1
6899,0
6900,0
6901,0
6904,1
6905,1
6906,0
6909,1
6910,1
6913,0
6914,1
6919,1
6920,1
6923,0
6924,0
6926,0
6927,0
6930,1
6931,1
6932,0
6938,0
6939,1
6943,1
6944,1
6951,1
6952,1
6953,0
6957,0
6958,0
6959,1
6963,0
6965,1
6967,0
6969,0
6970,1
6971,0
6972,0
6973,1
6974,1
6977,0
6981,0
6982,1
6983,0
6986,1
6987,0
6993,0
6994,1
6998,1
6999,1
7007,0
7009,0
7010,1
7012,1
7013,0
7015,1
7016,1
7017,1
7018,0
7020,1
7023,0
7024,1
7026,1
7027,1
7028,0
7029,0
7030,0
7035,0
7036,1
7039,1
7041,1
7044,0
7046,0
7047,0
7049,0
7050,0
7051,0
7052,1
7055,0
7056,1
7060,1
7061,0
7065,0
7068,0
7071,1
7073,1
7074,0
7076,0
7077,0
7078,1
7084,0
7086,1
7087,0
7089,0
7091,0
7094,1
7096,0
7099,0
7101,1
7102,1
7105,0
7112,0
7115,0
7117,0
7118,1
7119,1
7120,1
7122,0
7127,0
7130,1
7131,0
7132,1
7133,0
7135,1
7142,1
7145,1
7147,0
7153,0
7155,0
7156,1
7158,0
7163,0
7167,0
7172,1
7174,0
7177,1
7178,0
7179,0
7182,0
7183,1
7184,0
7185,1
7187,0
7188,0
7195,1
7196,1
7197,0
7199,0
7201,1
7202,1
7203,0
7204,0
7206,1
7208,1
7209,0
7212,0
7217,1
7218,1
7220,1
7225,0
7227,0
7228,0
7229,1
7234,0
7235,1
7238,1
7239,0
7241,1
7243,0
7244,0
7247,1
7249,0
7251,0
7254,1
7255,1
7256,1
7260,1
7263,1
7264,0
7265,0
7269,1
7270,1
7271,0
7273,0
7276,0
7278,1
7279,1
7284,1
7285,0
7286,1
7288,1
7291,1
7293,0
7294,0
7295,1
7297,1
7298,0
7299,1
7300,1
7301,0
7303,0
7304,0
7308,0
7311,0
7312,1
7315,0
7317,1
7319,0
7320,0
7322,0
7324,1
7327,0
7328,1
7329,1
7331,1
7332,0
7335,1
7337,0
7339,1
7341,0
7342,1
7345,0
7347,1
7348,0
7349,1
7350,0
7353,1
7354,0
7355,1
7357,1
7358,0
7359,0
7360,1
7362,1
7367,1
7368,0
7369,1
7370,0
7372,1
7373,1
7375,0
7376,0
7377,0
7380,0
7382,1
7386,0
7388,0
7391,0
7394,0
7397,1
7399,0
7400,0
7401,0
7402,0
7403,0
7404,1
7408,0
7409,1
7410,1
7413,0
7414,0
7418,0
7420,1
7422,0
7423,0
7425,0
7429,1
7432,1
7433,1
7434,0
7437,1
7439,1
7440,0
7441,1
7442,1
7447,1
7448,1
7449,0
7450,1
7452,0
7453,0
7454,0
7456,0
7457,0
7458,1
7459,1
7462,1
7463,0
7464,0
7465,0
7466,1
7467,0
7469,1
7470,0
7471,0
7472,1
7474,0
7476,0
7481,0
7485,0
7490,0
7491,0
7495,1
7497,0
7498,0
7499,1
7500,1
7502,0
7504,1
7508,1
7511,1
7513,1
7514,1
7515,1
7516,1
7519,1
7520,1
7523,1
7526,0
7528,1
7530,0
7531,0
7536,1
7537,0
7538,0
7541,1
7542,1
7543,1
7544,1
7545,1
7546,1
7547,0
7551,1
7555,0
7561,0
7564,0
7567,0
7569,0
7570,0
7572,0
7574,1
7575,1
7578,0
7582,0
7583,0
7584,1
7590,0
7591,0
7592,1
7595,1
7596,0
7597,1
7599,0
7600,0
7601,0
7602,0
7603,0
7604,1
7605,0
7607,0
7608,1
7612,1
7614,1
7616,1
7617,1
7623,0
7625,0
7626,0
7627,0
7629,0
7630,1
7631,1
7632,1
7637,0
7638,1
7642,1
7646,1
7649,1
7651,0
7652,0
7653,1
7654,1
7656,0
7657,1
7658,0
7662,1
7664,0
7665,1
7666,0
7667,0
7668,0
7671,1
7673,0
7674,1
7675,0
7680,1
7682,0
7686,0
7692,1
7695,0
7699,0
7701,0
7707,0
7708,1
7709,1
7710,1
7715,0
7716,0
7718,0
7719,0
7721,0
7722,0
7723,0
7724,0
7727,1
7728,1
7729,1
7730,0
7734,1
7737,0
7738,0
7739,0
7740,0
7743,1
7744,1
7746,0
7748,0
7749,1
7750,0
7753,0
7754,1
7755,0
7756,0
7758,1
7759,0
7760,0
7762,0
7763,1
7764,1
7765,0
7766,0
7771,0
7773,0
7774,0
7775,1
7776,0
7777,1
7778,0
7779,0
7784,0
7785,0
7787,0
7788,1
7790,1
7792,1
7793,1
7795,1
7796,0
7801,0
7802,0
7805,0
7807,0
7809,1
7813,1
7816,0
7817,0
7820,0
7821,0
7823,0
7824,0
7825,0
7826,1
7827,1
7830,0
7832,1
7834,0
7835,1
7837,1
7839,0
7841,0
7842,0
7843,0
7845,0
7847,0
7850,0
7852,1
7858,0
7859,0
7861,0
7862,1
7864,0
7865,1
7869,1
7870,1
7871,1
7874,1
7876,0
7877,0
7878,0
7886,0
7889,1
7890,1
7891,1
7892,1
7893,1
7896,0
7897,0
7898,1
7901,0
7902,1
7903,0
7904,0
7906,0
7907,0
7908,0
7910,1
7911,1
7912,1
7914,0
7915,1
7917,0
7919,0
7920,1
7924,1
7926,0
7927,1
7930,0
7931,1
7933,0
7936,1
7939,0
7948,0
7951,0
7952,1
7954,0
7958,0
7959,1
7960,1
7961,1
7963,0
7965,1
7967,0
7968,0
7969,1
7971,0
7972,0
7973,0
7974,1
7975,0
7976,1
7977,0
7980,0
7983,0
7984,0
7988,1
7990,0
7992,1
7993,1
7994,0
7995,0
7996,1
7998,0
7999,0
8004,0
8006,1
8008,0
8009,0
8011,1
8012,0
8013,0
8014,1
8016,1
8017,1
8018,1
8019,0
8020,1
8022,1
8024,0
8025,0
8026,0
8028,0
8029,0
8031,0
8036,1
8043,0
8044,0
8049,0
8050,0
8051,0
8052,0
8053,0
8054,0
8055,0
8063,1
8064,1
8065,0
8066,1
8067,1
8068,1
8069,1
8071,1
8072,1
8076,1
8077,1
8078,1
8079,1
8084,1
8089,0
8091,0
8092,1
8095,0
8098,0
8102,0
8104,0
8105,1
8107,1
8108,0
8109,0
8110,0
8111,1
8112,1
8113,0
8117,1
8122,1
8125,0
8127,0
8128,0
8129,0
8132,0
8134,1
8135,1
8139,0
8141,1
8144,0
8146,0
8148,1
8156,0
8157,1
8158,0
8159,1
8163,0
8166,1
8168,0
8171,1
8173,0
8174,1
8177,1
8180,1
8183,1
8184,1
8186,0
8187,0
8188,1
8189,0
8191,1
8194,1
8197,0
8199,1
8200,1
8201,0
8205,0
8207,0
8208,0
8211,1
8216,1
8217,0
8219,0
8220,1
8221,0
8222,0
8224,1
8226,0
8227,0
8228,0
8234,0
8236,1
8240,1
8242,1
8243,0
8244,1
8245,1
8249,0
8250,1
8255,0
8257,0
8259,0
8261,0
8262,1
8264,0
8266,1
8267,0
8271,0
8272,0
8273,1
8275,0
8279,0
8281,1
8283,0
8286,0
8287,0
8288,0
8289,0
8298,0
8301,1
8302,0
8308,1
8314,1
8318,0
8319,1
8320,0
8325,0
8329,1
8332,0
8334,0
8335,1
8338,0
8339,1
8341,1
8342,1
8343,0
8344,0
8346,1
8349,0
8355,0
8357,1
8358,0
8359,0
8360,0
8361,0
8363,1
8370,0
8372,0
8374,1
8375,1
8377,0
8386,0
8387,0
8393,0
8395,0
8396,1
8397,0
8398,0
8399,1
8403,0
8404,0
8408,0
8412,1
8413,1
8415,1
8419,1
8421,0
8422,0
8424,1
8425,0
8427,1
8435,1
8436,1
8443,1
8444,0
8445,0
8449,0
8450,1
8454,1
8458,1
8460,0
8461,1
8462,1
8464,0
8469,1
8470,1
8474,0
8475,0
8476,0
8479,1
8480,0
8481,1
8482,0
8485,1
8489,1
8490,0
8492,0
8494,0
8497,1
8498,0
8499,0
8500,0
8501,1
8502,0
8505,0
8506,0
8507,0
8509,0
8510,0
8511,1
8512,0
8513,0
8515,1
8517,0
8519,1
8520,0
8525,0
8528,0
8533,0
8534,0
8536,0
8537,1
8539,0
8541,0
8542,0
8543,1
8544,0
8545,0
8547,0
8550,0
8554,1
8555,1
8559,0
8560,0
8561,0
8563,0
8565,0
8570,0
8571,0
8572,0
8574,0
8576,1
8578,0
8579,0
8581,1
8582,1
8583,1
8585,0
8589,0
8591,1
8592,0
8593,1
8594,0
8596,0
8597,0
8598,1
8603,0
8604,1
8605,0
8607,1
8609,1
8611,1
8612,1
8615,1
8619,1
8620,1
8621,0
8622,1
8624,0
8625,0
8626,1
8629,0
8632,0
8633,0
8635,0
8636,0
8637,1
8640,0
8642,1
8644,1
8648,0
8650,0
8651,1
8653,0
8654,0
8655,1
8657,0
8658,0
8659,1
8660,0
8661,0
8663,1
8665,1
8666,1
8667,0
8669,0
8670,0
8671,1
8673,0
8675,1
8679,0
8680,1
8681,0
8685,0
8686,0
8687,0
8690,0
8694,1
8695,1
8699,0
8700,0
8701,1
8703,1
8704,0
8707,0
8710,0
8713,1
8715,1
8716,0
8717,0
8718,0
8719,1
8721,1
8722,0
8724,0
8726,0
8727,1
8729,1
8730,0
8731,1
8732,0
8734,1
8736,0
8737,0
8738,0
8740,0
8742,1
8744,1
8749,0
8750,0
8751,0
8752,0
8753,1
8755,0
8756,0
8757,0
8758,0
8759,0
8764,0
8765,1
8769,0
8770,0
8772,1
8776,1
8778,0
8779,1
8787,1
8788,1
8789,1
8790,0
8791,1
8793,0
8794,0
8795,0
8799,1
8801,1
8802,0
8804,1
8805,1
8806,1
8808,1
8809,0
8810,0
8811,0
8812,1
8813,1
8815,0
8816,1
8818,0
8819,0
8822,1
8824,0
8826,0
8827,1
8828,0
8834,0
8835,0
8836,0
8837,0
8838,0
8842,1
8844,1
8846,0
8848,0
8849,0
8850,0
8851,0
8854,0
8855,1
8857,0
8859,0
8862,0
8863,0
8865,1
8866,0
8869,0
8870,0
8871,0
8872,1
8879,1
8880,0
8882,1
8883,1
8884,1
8886,1
8888,0
8889,1
8890,1
8891,1
8892,1
8893,0
8896,0
8897,0
8899,0
8905,0
8907,0
8912,0
8915,0
8916,1
8917,0
8921,0
8922,0
8925,0
8928,1
8930,0
8931,1
8932,0
8933,0
8934,1
8935,0
8936,0
8941,0
8942,1
8945,1
8948,0
8949,1
8950,1
8951,1
8952,1
8955,1
8956,1
8958,1
8962,1
8963,0
8964,1
8965,0
8967,0
8969,0
8971,1
8975,0
8978,1
8981,1
8983,0
8984,1
8987,1
8988,0
8989,1
8990,0
8991,0
8994,0
9000,0
9002,0
9003,0
9004,1
9006,0
9008,0
9010,0
9011,0
9015,0
9016,0
9017,0
9019,0
9020,0
9023,1
9024,0
9025,0
9026,0
9027,0
9029,1
9030,1
9031,1
9032,0
9034,0
9035,0
9036,0
9040,1
9043,0
9044,0
9045,0
9047,0
9048,0
9049,1
9050,1
9051,1
9052,1
9053,0
9054,0
9055,0
9056,0
9060,0
9061,0
9062,0
9063,1
9066,0
9067,1
9068,1
9070,0
9071,1
9074,0
9075,1
9080,0
9081,0
9086,0
9087,0
9089,0
9091,0
9097,0
9098,1
9099,0
9100,0
9101,0
9102,0
9104,0
9111,1
9113,1
9114,1
9115,0
9116,1
9117,0
9119,1
9120,1
9121,0
9124,1
9125,1
9127,1
9128,0
9129,1
9132,0
9134,0
9136,1
9137,1
9139,1
9141,0
9142,0
9143,0
9144,0
9145,0
9147,1
9149,0
9150,1
9152,0
9154,0
9158,0
9160,0
9164,1
9165,1
9166,0
9168,0
9170,0
9172,1
9174,1
9178,0
9182,0
9184,0
9185,0
9187,0
9188,0
9191,1
9194,0
9196,0
9199,1
9202,0
9204,1
9206,0
9209,0
9211,1
9213,0
9215,1
9217,0
9219,0
9222,0
9225,0
9226,1
9227,0
9228,1
9230,0
9232,1
9234,0
9235,0
9239,1
9242,0
9243,0
9245,0
9248,1
9251,0
9255,0
9257,0
9260,0
9262,0
9263,0
9264,1
9266,0
9269,0
9271,1
9272,0
9274,0
9275,1
9276,0
9277,0
9278,1
9280,0
9281,1
9282,0
9285,0
9286,0
9287,0
9289,0
9290,1
9291,0
9292,0
9293,0
9295,0
9296,0
9297,0
9298,0
9301,0
9302,1
9303,1
9306,0
9307,1
9309,1
9311,0
9312,1
9313,0
9315,1
9317,1
9318,0
9319,0
9322,0
9324,0
9326,0
9327,0
9330,1
9331,1
9338,0
9341,0
9342,1
9343,1
9346,0
9347,0
9349,0
9352,0
9355,1
9357,1
9359,0
9360,1
9361,0
9363,0
9364,0
9366,1
9367,0
9368,0
9371,0
9373,1
9379,0
9380,0
9381,1
9384,0
9386,0
9387,0
9388,0
9389,0
9390,0
9393,1
9394,1
9396,0
9397,0
9401,0
9404,1
9406,1
9407,0
9408,0
9409,1
9412,0
9413,0
9417,0
9419,0
9420,0
9425,0
9429,1
9431,0
9432,0
9433,0
9438,0
9440,0
9446,0
9447,0
9449,1
9450,1
9452,1
9453,0
9455,1
9458,1
9462,1
9464,0
9466,1
9467,1
9471,0
9472,0
9474,0
9476,1
9477,0
9478,0
9479,1
9481,0
9484,0
9485,0
9490,0
9491,0
9495,1
9496,0
9497,0
9498,1
9499,0
9500,0
9502,0
9503,1
9506,0
9507,1
9508,1
9513,0
9515,1
9516,0
9517,0
9518,0
9520,0
9521,1
9522,0
9523,0
9525,1
9528,1
9530,0
9532,1
9533,1
9534,1
9537,0
9538,0
9539,0
9540,0
9541,0
9542,0
9545,1
9546,1
9549,0
9550,0
9552,0
9556,1
9558,1
9559,1
9564,0
9565,0
9571,1
9572,0
9573,0
9574,0
9575,1
9576,1
9578,0
9579,1
9582,0
9584,0
9585,1
9590,1
9591,0
9592,0
9594,0
9595,0
9598,0
9599,0
9601,0
9605,0
9606,0
9607,0
9608,0
9612,0
9614,1
9618,0
9620,0
9621,1
9623,0
9625,1
9626,0
9627,1
9630,0
9631,1
9635,1
9636,0
9637,0
9639,0
9640,0
9641,0
9643,1
9646,1
9647,1
9649,1
9650,0
9651,0
9653,0
9654,1
9655,1
9656,1
9657,0
9658,0
9659,0
9660,1
9663,1
9666,0
9671,1
9672,0
9674,0
9675,0
9676,1
9677,0
9678,0
9679,0
9680,0
9681,0
9685,1
9687,1
9690,1
9692,1
9693,0
9694,0
9695,0
9697,0
9701,0
9704,0
9706,0
9707,1
9708,1
9710,0
9711,1
9712,0
9713,0
9718,0
9721,0
9722,1
9723,1
9725,1
9727,0
9728,0
9729,1
9730,0
9732,0
9734,1
9737,0
9738,0
9740,0
9744,0
9745,1
9747,0
9751,1
9752,1
9754,0
9755,0
9757,0
9760,0
9763,1
9764,0
9765,1
9767,0
9772,0
9777,1
9778,0
9785,0
9786,0
9789,1
9791,0
9793,0
9798,0
9799,0
9803,0
9806,0
9807,0
9808,0
9809,0
9810,0
9811,0
9815,0
9816,1
9817,1
9820,0
9821,0
9822,1
9824,0
9831,0
9832,1
9836,0
9837,0
9843,0
9846,0
9849,0
9850,0
9851,1
9852,1
9854,1
9855,0
9858,0
9862,1
9865,0
9868,1
9870,1
9874,0
9875,0
9877,0
9881,0
9884,1
9885,0
9886,0
9887,0
9891,0
9892,1
9894,0
9895,0
9896,0
9900,1
9902,1
9903,1
9905,0
9906,0
9907,0
9909,0
9913,0
9916,0
9917,0
9918,0
9919,0
9921,0
9922,0
9923,0
9926,1
9927,0
9928,0
9929,1
9930,1
9931,1
9935,1
9939,0
9942,0
9947,0
9948,0
9952,1
9953,1
9957,0
9958,0
9959,0
9962,0
9964,0
9966,0
9967,0
9969,0
9974,1
9975,0
9976,0
9977,1
9978,1
9980,1
9982,0
9984,1
9986,1
9987,0
9988,0
9993,1
9997,0
9998,0
10000,0
10003,1
10005,0
10006,0
10008,0
10009,1
10010,0
10014,1
10015,0
10016,0
10017,0
10021,0
10022,0
10024,0
10027,0
10028,0
10031,0
10032,1
10035,0
10036,0
10038,1
10039,1
10041,1
10045,0
10052,0
10054,1
10057,1
10058,0
10059,1
10060,1
10061,0
10063,1
10067,0
10070,0
10071,0
10072,0
10074,0
10075,1
10076,1
10079,0
10083,0
10086,0
10088,0
10089,1
10091,1
10093,1
10094,0
10096,0
10098,1
10100,0
10103,0
10104,0
10105,0
10106,0
10107,1
10111,1
10112,0
10114,0
10115,0
10117,0
10121,0
10122,1
10130,0
10132,1
10138,1
10142,1
10143,0
10144,0
10149,0
10150,1
10151,0
10152,1
10153,1
10157,1
10158,0
10159,0
10160,0
10161,1
10164,0
10165,0
10167,1
10169,1
10172,0
10175,0
10179,0
10180,1
10185,0
10186,1
10188,0
10194,0
10198,1
10201,1
10204,1
10208,1
10209,0
10210,1
10212,0
10213,1
10215,0
10216,1
10217,0
10218,0
10219,0
10223,1
10224,0
10225,0
10227,0
10228,1
10231,0
10232,0
10235,1
10237,0
10238,0
10241,0
10243,0
10250,0
10252,0
10254,0
10256,0
10261,0
10262,1
10263,0
10267,0
10268,1
10270,0
10273,0
10276,0
10277,0
10283,0
10284,1
10285,1
10290,0
10292,0
10293,0
10294,1
10297,0
10298,1
10299,0
10300,0
10302,0
10305,1
10308,1
10310,0
10311,1
10313,1
10317,1
10320,1
10321,0
10322,1
10323,0
10324,1
10327,0
10328,0
10329,0
10331,0
10333,0
10336,0
10339,1
10340,0
10343,0
10344,0
10345,0
10347,0
10348,0
10350,0
10352,0
10354,0
10357,0
10358,1
10359,0
10360,0
10361,0
10363,0
10364,1
10365,0
10369,1
10371,0
10372,0
10375,0
10376,0
10380,0
10381,0
10387,1
10388,0
10389,0
10390,1
10391,1
10392,1
10393,0
10394,1
10400,1
10401,0
10402,0
10404,0
10406,1
10407,0
10408,0
10410,1
10413,0
10415,1
10417,1
10421,0
10422,0
10423,1
10426,0
10431,0
10434,0
10435,1
10437,1
10438,0
10440,0
10443,1
10446,1
10449,0
10450,1
10453,0
10454,1
10455,1
10456,0
10458,0
10459,0
10460,1
10461,0
10463,0
10464,0
10465,1
10466,0
10468,0
10469,0
10470,0
10471,0
10472,1
10473,0
10475,1
10477,1
10481,1
10482,1
10483,1
10484,0
10487,0
10488,0
10489,1
10491,1
10492,0
10494,0
10499,1
10500,0
10502,0
10509,0
10512,0
10519,0
10521,1
10525,1
10527,0
10529,0
10531,1
10532,1
10533,0
10535,0
10539,0
10542,0
10543,1
10544,0
10546,0
10548,0
10550,1
10551,1
10552,0
10553,0
10554,0
10555,0
10556,0
10557,0
10559,1
10560,0
10563,1
10564,1
10565,0
10566,1
10567,0
10569,0
10570,0
10571,0
10574,1
10575,0
10576,0
10577,0
10578,0
10579,0
10581,1
10583,0
10585,1
10586,1
10587,0
10589,0
10591,0
10592,0
10593,1
10594,1
10595,0
10596,0
10597,1
10598,0
10601,0
10602,1
10603,0
10604,1
10605,0
10606,1
10607,0
10609,0
10610,0
10611,0
10612,0
10614,0
10615,0
10616,0
10618,1
10619,1
10621,1
10623,1
10626,1
10628,0
10631,1
10632,1
10635,1
10636,0
10639,0
10640,1
10641,1
10644,0
10651,1
10655,0
10659,1
10661,0
10666,0
10670,0
10672,1
10675,0
10677,1
10678,0
10681,0
10685,0
10688,0
10694,1
10695,1
10699,0
10702,1
10704,0
10706,0
10708,0
10709,0
10710,0
10712,0
10713,1
10717,0
10721,0
10723,0
10726,0
10728,1
10729,1
10730,0
10731,0
10736,0
10737,0
10738,0
10739,1
10740,0
10743,1
10744,0
10745,1
10746,1
10747,0
10749,1
10751,1
10754,0
10755,0
10759,1
10761,0
10762,0
10765,1
10766,0
10767,1
10770,1
10771,1
10773,0
10781,1
10782,1
10788,0
10790,1
10791,1
10795,1
10798,0
10799,1
10800,1
10802,0
10805,1
10807,0
10809,1
10817,1
10821,0
10822,1
10823,0
10826,0
10829,1
10833,1
10836,0
10838,1
10839,1
10840,0
10845,1
10849,1
10850,1
10851,1
10855,1
10856,0
10859,1
10860,0
10866,0
10867,1
10868,0
10876,1
10877,1
10879,1
10882,0
10885,1
10887,0
10890,1
10891,0
10893,1
10895,0
10896,1
10900,1
10901,1
10902,1
10904,0
10906,0
10910,0
10917,0
10918,0
10919,0
10920,0
10923,0
10926,0
10927,1
10928,0
10930,1
10931,1
10933,1
10934,1
10935,0
10943,1
10945,0
10947,1
10948,1
10952,0
10955,0
10957,1
10960,0
10962,1
10964,1
10965,0
10969,0
10970,1
10972,0
10976,0
10978,0
10980,1
10981,1
10983,0
10986,1
10987,0
10988,1
10989,0
10990,1
10993,0
10995,0
10996,0
10997,1
10998,1
10999,0
11003,0
11004,0
11006,1
11007,1
11008,1
11009,1
11011,1
11012,1
11015,1
11016,1
11017,0
11021,1
11023,0
11024,0
11029,1
11030,1
11032,1
11035,0
11036,1
11037,0
11038,1
11039,0
11041,0
11044,0
11046,0
11048,1
11049,1
11051,1
11057,0
11059,1
11060,0
11062,1
11063,0
11068,1
11069,1
11070,1
11071,0
11072,1
11076,0
11077,1
11078,0
11080,0
11081,1
11082,0
11083,1
11084,1
11087,1
11095,0
11098,0
11100,1
11101,0
11105,1
11106,1
11108,0
11109,0
11112,1
11116,0
11118,1
11121,0
11123,1
11124,1
11126,1
11130,1
11131,0
11132,0
11135,1
11137,0
11140,0
11143,1
11144,1
11147,1
11148,1
11149,1
11150,1
11152,1
11153,0
11155,0
11156,0
11158,1
11162,0
11163,0
11164,1
11166,1
11167,1
11169,0
11170,1
11173,0
11174,1
11175,0
11176,1
11180,0
11181,0
11182,1
11183,1
11189,1
11190,0
11194,1
11196,0
11198,1
11199,0
11200,0
11201,0
11202,1
11203,0
11204,0
11205,0
11206,0
11209,1
11211,0
11214,0
11215,1
11217,0
11223,1
11225,1
11227,1
11228,1
11229,1
11230,1
11231,1
11236,0
11237,0
11239,0
11241,0
11242,1
11245,1
11246,0
11251,0
11254,1
11255,1
11258,1
11260,1
11261,0
11263,0
11266,1
11267,1
11268,0
11270,0
11273,0
11274,0
11276,1
11277,1
11278,0
11280,0
11281,1
11282,0
11283,0
11284,1
11285,0
11287,1
11288,1
11289,1
11290,1
11291,1
11292,0
11294,0
11296,1
11298,1
11300,1
11302,0
11303,1
11305,1
11306,1
11307,1
11308,1
11310,0
11311,0
11313,0
11314,0
11316,0
11317,0
11318,1
11319,0
11320,0
11324,1
11325,1
11326,1
11327,1
11329,1
11330,1
11331,0
11334,0
11335,1
11336,1
11339,0
11341,0
11343,1
11344,1
11346,0
11347,0
11348,0
11350,0
11356,1
11358,0
11359,0
11361,1
11362,1
11363,1
11365,1
11366,0
11368,1
11370,0
11371,0
11375,0
11377,0
11378,0
11379,1
11380,1
11381,0
11382,1
11383,0
11384,1
11386,0
11387,0
11388,1
11392,1
11393,0
11397,0
11398,1
11400,1
11401,0
11402,1
11404,1
11405,1
11406,1
11411,0
11413,1
11414,0
11415,0
11417,0
11418,0
11421,0
11426,1
11428,1
11429,0
11430,0
11432,1
11437,0
11438,1
11439,1
11440,1
11441,1
11443,0
11444,0
11445,0
11446,0
11448,1
11450,0
11451,0
11452,0
11453,0
11457,0
11461,1
11463,1
11464,0
11465,1
11467,0
11470,1
11475,0
11478,1
11480,0
11481,1
11482,0
11483,1
11485,0
11487,0
11488,1
11489,1
11491,0
11500,1
11502,1
11504,1
11505,0
11506,0
11507,0
11509,0
11511,0
11512,1
11513,0
11514,1
11516,1
11517,1
11518,0
11519,0
11520,1
11522,1
11523,1
11524,1
11525,1
11526,1
11527,1
11528,1
11529,0
11531,0
11532,0
11533,0
11535,0
11536,0
11538,0
11540,0
11541,0
11545,0
11546,0
11547,0
11549,0
11554,1
11555,1
11556,1
11557,0
11558,1
11560,1
11563,1
11574,1
11580,1
11584,1
11585,1
11589,1
11590,0
11594,1
11597,1
11598,1
11599,1
11600,1
11603,1
11605,1
11607,1
11609,1
11611,1
11612,1
11614,1
11617,1
11619,1
11620,1
11622,1
11624,1
11625,1
11628,1
11629,1
11630,1
11632,1
11633,1
11634,1
11637,1
11638,0
11642,1
11643,1
11645,1
11649,1
11650,1
11651,1
11653,0
11655,1
11658,1
11661,1
11663,1
11665,1
